…
**Read historical data** `readr::read_delim`

``` r
dwd_prec <- read_delim(metadata[16], 
                       ";", escape_double = FALSE, 
                       col_types = cols(MESS_DATUM = col_datetime(format="%Y%m%d%H")), 
                       trim_ws = TRUE)
```

``` r
dwd_prec 
```

    ## # A tibble: 211,810 x 7
    ##    STATIONS_ID MESS_DATUM           QN_8    R1 RS_IND  WRTR eor  
    ##          <dbl> <dttm>              <dbl> <dbl>  <dbl> <dbl> <chr>
    ##  1        3987 1995-09-01 00:00:00     1   1.3      1  -999 eor  
    ##  2        3987 1995-09-01 01:00:00     1   1.7      1  -999 eor  
    ##  3        3987 1995-09-01 02:00:00     1   0.5      1  -999 eor  
    ##  4        3987 1995-09-01 03:00:00     1   0.5      1  -999 eor  
    ##  5        3987 1995-09-01 04:00:00     1   0.9      1  -999 eor  
    ##  6        3987 1995-09-01 05:00:00     1   1.1      1  -999 eor  
    ##  7        3987 1995-09-01 06:00:00     1   1.9      1  -999 eor  
    ##  8        3987 1995-09-01 07:00:00     1   1.1      1  -999 eor  
    ##  9        3987 1995-09-01 08:00:00     1   2        1  -999 eor  
    ## 10        3987 1995-09-01 09:00:00     1   0.3      1  -999 eor  
    ## # ... with 211,800 more rows
…
