…
*Read historical data*

``` r
dwd_prec <- read_delim(metadata[16], 
                            ";", escape_double = FALSE, 
                            col_types = cols(MESS_DATUM = col_datetime(format="%Y%m%d%H")), 
                            trim_ws = TRUE)
```

``` r
dwd_prec 
```

    ## # A tibble: 211,810 x 7
    ##    STATIONS_ID MESS_DATUM           QN_8    R1 RS_IND  WRTR eor  
    ##          <dbl> <dttm>              <dbl> <dbl>  <dbl> <dbl> <chr>
    ##  1        3987 1995-09-01 00:00:00     1   1.3      1  -999 eor  
    ##  2        3987 1995-09-01 01:00:00     1   1.7      1  -999 eor  
    ##  3        3987 1995-09-01 02:00:00     1   0.5      1  -999 eor  
    ##  4        3987 1995-09-01 03:00:00     1   0.5      1  -999 eor  
    ##  5        3987 1995-09-01 04:00:00     1   0.9      1  -999 eor  
    ##  6        3987 1995-09-01 05:00:00     1   1.1      1  -999 eor  
    ##  7        3987 1995-09-01 06:00:00     1   1.9      1  -999 eor  
    ##  8        3987 1995-09-01 07:00:00     1   1.1      1  -999 eor  
    ##  9        3987 1995-09-01 08:00:00     1   2        1  -999 eor  
    ## 10        3987 1995-09-01 09:00:00     1   0.3      1  -999 eor  
    ## # ... with 211,800 more rows
…
Read historical data

``` r
dwd.cloudiness <- read_delim(metadata[12], 
                             ";", escape_double = FALSE, 
                             col_types = cols(MESS_DATUM = col_datetime(format="%Y%m%d%H")), 
                             trim_ws = TRUE)
```

``` r
dwd.cloudiness
```

    ## # A tibble: 367,979 x 6
    ##    STATIONS_ID MESS_DATUM           QN_8 V_N_I   V_N eor  
    ##          <dbl> <dttm>              <dbl> <chr> <dbl> <chr>
    ##  1        3987 1975-07-01 00:00:00     1 P         8 eor  
    ##  2        3987 1975-07-01 06:00:00     1 P         3 eor  
    ##  3        3987 1975-07-01 12:00:00     1 P         7 eor  
    ##  4        3987 1975-07-01 18:00:00     1 P         7 eor  
    ##  5        3987 1975-07-02 00:00:00     1 P         8 eor  
    ##  6        3987 1975-07-02 06:00:00     1 P         7 eor  
    ##  7        3987 1975-07-02 12:00:00     1 P         5 eor  
    ##  8        3987 1975-07-02 18:00:00     1 P         6 eor  
    ##  9        3987 1975-07-03 00:00:00     1 P         7 eor  
    ## 10        3987 1975-07-03 06:00:00     1 P         6 eor  
    ## # ... with 367,969 more rows
…
``` r
#dwd_prec$cloud_cover <- dwd.cloudiness$cloud_cover
#dwd_prec$cloud_cover <- filter(dwd.cloudiness, timestamp>="1995-09-01 00:00:00" &
#                               timestamp<="2019-12-31 23:00:00")$cloud_cover
```

``` r
DWD_data <- left_join(dwd_prec[,c(2,3,4,5)], dwd.cloudiness[,c(2,5)], by="timestamp", match="first")
DWD_data 
```

    ## # A tibble: 211,810 x 5
    ##    timestamp            QN_8 precip_mm prec_hour cloud_cover
    ##    <dttm>              <dbl>     <dbl>     <dbl> <fct>      
    ##  1 1995-09-01 00:00:00     1       1.3         1 Cumulus    
    ##  2 1995-09-01 01:00:00     1       1.7         1 Cumulus    
    ##  3 1995-09-01 02:00:00     1       0.5         1 Cumulus    
    ##  4 1995-09-01 03:00:00     1       0.5         1 Cumulus    
    ##  5 1995-09-01 04:00:00     1       0.9         1 Cumulus    
    ##  6 1995-09-01 05:00:00     1       1.1         1 Cumulus    
    ##  7 1995-09-01 06:00:00     1       1.9         1 Cumulus    
    ##  8 1995-09-01 07:00:00     1       1.1         1 Cumulus    
    ##  9 1995-09-01 08:00:00     1       2           1 Cumulus    
    ## 10 1995-09-01 09:00:00     1       0.3         1 Cumulus    
    ## # ... with 211,800 more rows
…
    ## [1] "2019-12-31 18:00:00 UTC" "2019-12-31 19:00:00 UTC"
    ## [3] "2019-12-31 20:00:00 UTC" "2019-12-31 21:00:00 UTC"
    ## [5] "2019-12-31 22:00:00 UTC" "2019-12-31 23:00:00 UTC"

``` r
DWD_data <- tibble(timestamp=ts)
DWD_data <- left_join(DWD_data, dwd_prec[,c(2,3,4,5)], by="timestamp", type="left", match="first")
DWD_data <- left_join(DWD_data, dwd.cloudiness[,c(2,5)], by="timestamp", type="left", match="first")
```

``` r
DWD_data 
```

    ## # A tibble: 213,312 x 5
    ##    timestamp            QN_8 precip_mm prec_hour cloud_cover
    ##    <dttm>              <dbl>     <dbl>     <dbl> <fct>      
    ##  1 1995-09-01 00:00:00     1       1.3         1 Cumulus    
    ##  2 1995-09-01 01:00:00     1       1.7         1 Cumulus    
    ##  3 1995-09-01 02:00:00     1       0.5         1 Cumulus    
    ##  4 1995-09-01 03:00:00     1       0.5         1 Cumulus    
    ##  5 1995-09-01 04:00:00     1       0.9         1 Cumulus    
    ##  6 1995-09-01 05:00:00     1       1.1         1 Cumulus    
    ##  7 1995-09-01 06:00:00     1       1.9         1 Cumulus    
    ##  8 1995-09-01 07:00:00     1       1.1         1 Cumulus    
    ##  9 1995-09-01 08:00:00     1       2           1 Cumulus    
    ## 10 1995-09-01 09:00:00     1       0.3         1 Cumulus    
    ## # ... with 213,302 more rows
…
