…
    ## Registered S3 method overwritten by 'GGally':
    ##   method from   
    ##   +.gg   ggplot2

``` r
DWD_precipitation <- read_rds("DWD_precipitation.rds")
```

Tidy data and vector types <dbl> , <chr> and <fct>

``` r
DWD_precipitation
```

    ## # A tibble: 236,566 x 10
    ##    timestamp           precip_mm precip_h cloud_cover rel_humidity
    ##    <dttm>                  <dbl>    <dbl>       <dbl>        <dbl>
    ##  1 1997-01-01 00:00:00         0        0           0         90.5
    ##  2 1997-01-01 01:00:00         0        0           0         88.2
    ##  3 1997-01-01 02:00:00         0        0           0         89.7
    ##  4 1997-01-01 03:00:00         0        0           0         91.2
    ##  5 1997-01-01 04:00:00         0        0           0         87.4
    ##  6 1997-01-01 05:00:00         0        0           0         91.1
    ##  7 1997-01-01 06:00:00         0        0           0         86.5
    ##  8 1997-01-01 07:00:00         0        0           0         87.3
    ##  9 1997-01-01 08:00:00         0        0           0         89.5
    ## 10 1997-01-01 09:00:00         0        0           0         88.8
    ## # ... with 236,556 more rows, and 5 more variables: sunlight_times <chr>,
    ## #   prec.window <dbl>, cloud_type <fct>, day_night <dbl>, air_temp <dbl>
…
