…
``` r
set.seed(999, sample.kind = "Rounding")
```

    ## Warning in set.seed(999, sample.kind = "Rounding"): non-uniform 'Rounding'
    ## sampler used

``` r
linear_reg() %>% set_engine("lm") %>% set_mode("regression") %>%
  fit(rel_humidity ~ air_temp + prec.window + precip_mm + precip_h + sunlight_times, 
      data = sample_n(filter(DWD_precipitation, year(timestamp) >= 2020), 100)) %>%
  pluck("fit") %>% get_regression_points()
```

    ## # A tibble: 100 x 9
    ##       ID rel_humidity air_temp prec.window precip_mm precip_h sunlight_times
    ##    <int>        <dbl>    <dbl>       <dbl>     <dbl>    <dbl> <chr>         
    ##  1     1         25.7     20.5         115         0        0 Sun_setting   
    ##  2     2         51       20.7         162         0        0 Sun_rising    
    ##  3     3         72.7      5.7           7         0        0 Noon          
    ##  4     4         90.3      9.2          12         0        0 Sun_setting   
    ##  5     5         69.8     11.5          50         0        0 Sun_setting   
    ##  6     6         69        5            83         0        0 Noon          
    ##  7     7         40.8     27.6         285         0        0 Dusk          
    ##  8     8         76.1      7             2         0        0 Noon          
    ##  9     9         50       15           143         0        0 Sun_rising    
    ## 10    10         38.3     28.7         134         0        0 Sun_setting   
    ## # ... with 90 more rows, and 2 more variables: rel_humidity_hat <dbl>,
    ## #   residual <dbl>
…
