…
``` r
pls_fit4 <- PLS_wf4 %>% 
  fit(data = ET_train)
```

``` r
pls_fit4 %>% 
  pull_workflow_fit() %>% 
  tidy()
```

    ## # A tibble: 140 x 4
    ##    term       value type       component
    ##    <chr>      <dbl> <chr>          <dbl>
    ##  1 air_temp  0.240  predictors         1
    ##  2 air_temp -0.0942 predictors         2
    ##  3 air_temp  0.0430 predictors         3
    ##  4 air_temp  0.192  predictors         4
    ##  5 RH       -0.233  predictors         1
    ##  6 RH       -0.0530 predictors         2
    ##  7 RH        0.200  predictors         3
    ##  8 RH       -0.172  predictors         4
    ##  9 p        -0.0876 predictors         1
    ## 10 p         0.0335 predictors         2
    ## # ... with 130 more rows
…
``` r
rf_fit %>% collect_metrics()
```

    ## # A tibble: 30 x 8
    ##     mtry trees .metric .estimator  mean     n std_err .config              
    ##    <dbl> <dbl> <chr>   <chr>      <dbl> <int>   <dbl> <chr>                
    ##  1     2    50 rmse    standard   0.126    50 0.00576 Preprocessor1_Model01
    ##  2     2    50 rsq     standard   0.592    50 0.0310  Preprocessor1_Model01
    ##  3     2   100 rmse    standard   0.128    50 0.00545 Preprocessor1_Model02
    ##  4     2   100 rsq     standard   0.580    50 0.0312  Preprocessor1_Model02
    ##  5     2   500 rmse    standard   0.125    50 0.00560 Preprocessor1_Model03
    ##  6     2   500 rsq     standard   0.606    50 0.0310  Preprocessor1_Model03
    ##  7     4    50 rmse    standard   0.120    50 0.00486 Preprocessor1_Model04
    ##  8     4    50 rsq     standard   0.609    50 0.0324  Preprocessor1_Model04
    ##  9     4   100 rmse    standard   0.119    50 0.00482 Preprocessor1_Model05
    ## 10     4   100 rsq     standard   0.611    50 0.0311  Preprocessor1_Model05
    ## # ... with 20 more rows
…
``` r
rf_wf_final %>% collect_metrics()
```

    ## # A tibble: 2 x 4
    ##   .metric .estimator .estimate .config             
    ##   <chr>   <chr>          <dbl> <chr>               
    ## 1 rmse    standard       0.110 Preprocessor1_Model1
    ## 2 rsq     standard       0.842 Preprocessor1_Model1

``` r
rf_wf_final %>% collect_predictions()
```

    ## # A tibble: 25 x 5
    ##    id                 .pred  .row       ET .config             
    ##    <chr>              <dbl> <int>    <dbl> <chr>               
    ##  1 train/test split 0.293       1  0.187   Preprocessor1_Model1
    ##  2 train/test split 0.102      10  0.164   Preprocessor1_Model1
    ##  3 train/test split 0.00880    11  0.0326  Preprocessor1_Model1
    ##  4 train/test split 0.144      13  0.00818 Preprocessor1_Model1
    ##  5 train/test split 0.116      15  0.0802  Preprocessor1_Model1
    ##  6 train/test split 0.378      17  0.469   Preprocessor1_Model1
    ##  7 train/test split 0.0560     21 -0.0807  Preprocessor1_Model1
    ##  8 train/test split 0.0646     31 -0.0955  Preprocessor1_Model1
    ##  9 train/test split 0.0567     34 -0.117   Preprocessor1_Model1
    ## 10 train/test split 0.0470     35 -0.0296  Preprocessor1_Model1
    ## # ... with 15 more rows
…
``` r
set.seed(456)
rf_fitS <- 
  rf_wfS %>% 
  tune_grid(
    resamples = ET_cv,
    grid = tree_grid)
```

``` r
rf_fitS %>% collect_metrics()
```

    ## # A tibble: 30 x 8
    ##     mtry trees .metric .estimator  mean     n std_err .config              
    ##    <dbl> <dbl> <chr>   <chr>      <dbl> <int>   <dbl> <chr>                
    ##  1     2    50 rmse    standard   0.131     5 0.00464 Preprocessor1_Model01
    ##  2     2    50 rsq     standard   0.576     5 0.0586  Preprocessor1_Model01
    ##  3     2   100 rmse    standard   0.130     5 0.00523 Preprocessor1_Model02
    ##  4     2   100 rsq     standard   0.581     5 0.0726  Preprocessor1_Model02
    ##  5     2   500 rmse    standard   0.129     5 0.00573 Preprocessor1_Model03
    ##  6     2   500 rsq     standard   0.597     5 0.0744  Preprocessor1_Model03
    ##  7     4    50 rmse    standard   0.125     5 0.00578 Preprocessor1_Model04
    ##  8     4    50 rsq     standard   0.605     5 0.0738  Preprocessor1_Model04
    ##  9     4   100 rmse    standard   0.121     5 0.00493 Preprocessor1_Model05
    ## 10     4   100 rsq     standard   0.636     5 0.0754  Preprocessor1_Model05
    ## # ... with 20 more rows
…
