…
### Temperature

``` r
DWD_temperature[,1:2] %>%
  filter(year(timestamp) >= 1900) %>%
  group_by(Year = year(timestamp), doy = yday(timestamp)) %>%
  summarise(Tmax = max(air_temp, na.rm = T)) %>%
  print(n=10) -> Max_tempday
```

    ## `summarise()` has grouped output by 'Year'. You can override using the `.groups` argument.

    ## # A tibble: 44,195 x 3
    ## # Groups:   Year [121]
    ##     Year   doy  Tmax
    ##    <dbl> <dbl> <dbl>
    ##  1  1900     1   2.5
    ##  2  1900     2   1.9
    ##  3  1900     3   7  
    ##  4  1900     4   8.1
    ##  5  1900     5   3.7
    ##  6  1900     6   0.3
    ##  7  1900     7  -0.9
    ##  8  1900     8  -0.1
    ##  9  1900     9   2.5
    ## 10  1900    10   3.8
    ## # ... with 44,185 more rows
…
