…
``` r
DWD_precipitation %>%
  filter(year(timestamp) == 2020) %>%
  mutate(precip_h = as_factor(precip_h) %>% fct_recode(dry = "0", raining = "1")) %>%
  specify(response = precip_h, success = "raining") %>%
  generate(reps = 1000, type = "bootstrap") %>%
  calculate(stat = "prop") -> stat_prop
```

``` r
stat_prop
```

    ## # A tibble: 1,000 x 2
    ##    replicate  stat
    ##        <int> <dbl>
    ##  1         1 0.165
    ##  2         2 0.163
    ##  3         3 0.165
    ##  4         4 0.166
    ##  5         5 0.166
    ##  6         6 0.166
    ##  7         7 0.162
    ##  8         8 0.169
    ##  9         9 0.163
    ## 10        10 0.170
    ## # ... with 990 more rows
…
``` r
null_distribution
```

    ## # A tibble: 100 x 2
    ##    replicate      stat
    ##        <int>     <dbl>
    ##  1         1  0.0137  
    ##  2         2  0.00375 
    ##  3         3  0.00517 
    ##  4         4 -0.00194 
    ##  5         5 -0.000521
    ##  6         6  0.00660 
    ##  7         7  0.0151  
    ##  8         8  0.0137  
    ##  9         9 -0.00764 
    ## 10        10  0.0194  
    ## # ... with 90 more rows
…
``` r
null_distribution
```

    ## # A tibble: 1,000 x 2
    ##    replicate      stat
    ##        <int>     <dbl>
    ##  1         1 -0.0216  
    ##  2         2  0.0235  
    ##  3         3 -0.00733 
    ##  4         4 -0.0287  
    ##  5         5 -0.00258 
    ##  6         6 -0.0216  
    ##  7         7 -0.000204
    ##  8         8 -0.00258 
    ##  9         9 -0.0121  
    ## 10        10  0.00454 
    ## # ... with 990 more rows
…
``` r
null_distribution <- DWD_precipitation %>%
  filter(year(timestamp) == 2020 & month(timestamp) == 4) %>%
  mutate(cloud = fct_other(cloud_type, keep = "Cumulus", other_level = "non-cumulus")) %>%
  specify(formula = air_temp ~ cloud) %>%
  hypothesize(null = "independence") %>%
  generate(reps = 1000, type = "permute") %>%
  calculate(stat = "diff in means", order = c("Cumulus", "non-cumulus"))  # "diff in means"
```

``` r
null_distribution
```

    ## # A tibble: 1,000 x 2
    ##    replicate    stat
    ##        <int>   <dbl>
    ##  1         1  0.167 
    ##  2         2 -0.277 
    ##  3         3  0.181 
    ##  4         4  0.0333
    ##  5         5 -0.201 
    ##  6         6 -0.479 
    ##  7         7  0.166 
    ##  8         8 -0.390 
    ##  9         9 -0.109 
    ## 10        10 -0.267 
    ## # ... with 990 more rows
…
