…
``` r
DWD_precipitation %>%
  filter(year(timestamp) == 2020) %>%
  mutate(precip_h = as_factor(precip_h) %>% fct_recode(dry = "0", raining = "1")) %>%
  specify(response = precip_h, success = "raining") %>%
  generate(reps = 1000, type = "bootstrap") %>%
  calculate(stat = "prop") -> stat_prop
```

``` r
stat_prop
```

    ## # A tibble: 1,000 x 2
    ##    replicate  stat
    ##        <int> <dbl>
    ##  1         1 0.165
    ##  2         2 0.168
    ##  3         3 0.168
    ##  4         4 0.166
    ##  5         5 0.165
    ##  6         6 0.167
    ##  7         7 0.166
    ##  8         8 0.169
    ##  9         9 0.162
    ## 10        10 0.167
    ## # ... with 990 more rows
…
``` r
null_distribution
```

    ## # A tibble: 100 x 2
    ##    replicate     stat
    ##        <int>    <dbl>
    ##  1         1 -0.0162 
    ##  2         2 -0.0233 
    ##  3         3  0.0151 
    ##  4         4  0.0151 
    ##  5         5 -0.00337
    ##  6         6  0.00233
    ##  7         7  0.00375
    ##  8         8 -0.00479
    ##  9         9 -0.0119 
    ## 10        10 -0.00764
    ## # ... with 90 more rows
…
``` r
null_distribution
```

    ## # A tibble: 1,000 x 2
    ##    replicate     stat
    ##        <int>    <dbl>
    ##  1         1 -0.0168 
    ##  2         2 -0.00258
    ##  3         3 -0.0192 
    ##  4         4  0.00217
    ##  5         5 -0.0192 
    ##  6         6  0.00454
    ##  7         7  0.00454
    ##  8         8  0.00692
    ##  9         9 -0.00733
    ## 10        10 -0.0192 
    ## # ... with 990 more rows
…
``` r
null_distribution <- DWD_precipitation %>%
  filter(year(timestamp) == 2020 & month(timestamp) == 4) %>%
  mutate(cloud = fct_other(cloud_type, keep = "Cumulus", other_level = "non-cumulus")) %>%
  specify(formula = air_temp ~ cloud) %>%
  hypothesize(null = "independence") %>%
  generate(reps = 1000, type = "permute") %>%
  calculate(stat = "diff in means", order = c("Cumulus", "non-cumulus"))  # "diff in means"
```

``` r
null_distribution
```

    ## # A tibble: 1,000 x 2
    ##    replicate     stat
    ##        <int>    <dbl>
    ##  1         1 -0.0353 
    ##  2         2 -0.161  
    ##  3         3  0.140  
    ##  4         4 -0.217  
    ##  5         5 -0.0625 
    ##  6         6 -0.00981
    ##  7         7 -0.114  
    ##  8         8 -0.490  
    ##  9         9 -0.0853 
    ## 10        10 -0.122  
    ## # ... with 990 more rows
…
