…
``` r
linear_reg() %>% set_engine("lm") %>% set_mode("regression") %>%
  fit(rel_humidity ~ ., data = filter(DWD_precipitation, year(timestamp) >= 2020)) %>%
  pluck("fit") %>% get_regression_table()
```

    ## # A tibble: 24 x 7
    ##    term                   estimate std_error statistic p_value lower_ci upper_ci
    ##    <chr>                     <dbl>     <dbl>     <dbl>   <dbl>    <dbl>    <dbl>
    ##  1 intercept              -768.       11.8      -65.2    0     -791.    -745.   
    ##  2 timestamp                 0         0         74.8    0        0        0    
    ##  3 precip_mm                 4.47      0.181     24.7    0        4.12     4.83 
    ##  4 precip_h                  8.41      0.2       42.0    0        8.02     8.81 
    ##  5 cloud_cover              -0.519     0.159     -3.27   0.001   -0.83    -0.208
    ##  6 sunlight_timesDusk       -9.49      0.306    -31.0    0      -10.1     -8.89 
    ##  7 sunlight_timesGoldenh~  -13.9       0.404    -34.3    0      -14.7    -13.1  
    ##  8 sunlight_timesGoldenh~    1.47      0.405      3.62   0        0.674    2.26 
    ##  9 sunlight_timesNight      -4.10      0.247    -16.6    0       -4.58    -3.62 
    ## 10 sunlight_timesNoon      -15.9       0.388    -40.8    0      -16.6    -15.1  
    ## # ... with 14 more rows
…
``` r
set.seed(123)
linear_reg() %>% set_engine("lm") %>% set_mode("regression") %>%
  fit(rel_humidity ~ ., data = sample_n(filter(DWD_precipitation, year(timestamp) >= 2020), 100)) %>%
  pluck("fit") %>% tidy()
```

    ## # A tibble: 23 x 5
    ##    term                               estimate     std.error statistic   p.value
    ##    <chr>                                 <dbl>         <dbl>     <dbl>     <dbl>
    ##  1 (Intercept)                        -1.02e+3 252.            -4.06   0.000116 
    ##  2 timestamp                           7.01e-7   0.000000158    4.43   0.0000300
    ##  3 precip_mm                           1.47e+1   6.18           2.38   0.0197   
    ##  4 precip_h                           -1.71e+0   4.87          -0.350  0.727    
    ##  5 cloud_cover                         3.72e-1   0.538          0.691  0.491    
    ##  6 sunlight_timesDusk                 -1.12e+1   6.29          -1.78   0.0789   
    ##  7 sunlight_timesGoldenhour_afternoon -1.08e+1   7.98          -1.35   0.182    
    ##  8 sunlight_timesGoldenhour_morning    2.52e+0   8.52           0.296  0.768    
    ##  9 sunlight_timesNight                 3.67e-1   4.86           0.0755 0.940    
    ## 10 sunlight_timesNoon                 -8.79e+0   8.06          -1.09   0.278    
    ## # ... with 13 more rows
…
    ## # A tibble: 1 x 9
    ##   r_squared adj_r_squared   mse  rmse sigma statistic p_value    df  nobs
    ##       <dbl>         <dbl> <dbl> <dbl> <dbl>     <dbl>   <dbl> <dbl> <dbl>
    ## 1     0.596         0.588  217.  14.7  15.0      71.6       0     2   100

``` r
set.seed(999)
linear_reg() %>% set_engine("lm") %>% set_mode("regression") %>%
  fit(rel_humidity ~ air_temp + prec.window, data = sample_n(filter(DWD_precipitation, year(timestamp) >= 2020), 100)) %>%
  pluck("fit") %>% get_regression_points()
```

    ## # A tibble: 100 x 6
    ##       ID rel_humidity air_temp prec.window rel_humidity_hat residual
    ##    <int>        <dbl>    <dbl>       <dbl>            <dbl>    <dbl>
    ##  1     1         35.7      5.8          83             81.6   -45.9 
    ##  2     2         90.8      7.5           3             84.1     6.73
    ##  3     3         64.2      7.3          28             82.8   -18.6 
    ##  4     4         28       34.7         150             30.2    -2.25
    ##  5     5        100        5.2         142             78.7    21.3 
    ##  6     6         57.2     16.8         281             50.7     6.48
    ##  7     7         99.3      9.7          18             79.5    19.8 
    ##  8     8         79.5     11.1          27             76.6     2.85
    ##  9     9         27.1     27           189             40.2   -13.1 
    ## 10    10         62.5     20.3         129             55.0     7.49
    ## # ... with 90 more rows
…
