…
the test statistic and p-values are based on a t-distribution with
degrees of freedom equal to df= n−p = 999-2=996.

``` r
set.seed(999)
linear_reg() %>% set_engine("lm") %>% set_mode("regression") %>%
  fit(rel_humidity ~ air_temp + prec.window + precip_mm + precip_h + sunlight_times, 
      data = sample_n(filter(DWD_precipitation, year(timestamp) >= 2020), 100)) %>%
  pluck("fit") %>% get_regression_points()
```

    ## # A tibble: 100 x 9
    ##       ID rel_humidity air_temp prec.window precip_mm precip_h sunlight_times
    ##    <int>        <dbl>    <dbl>       <dbl>     <dbl>    <dbl> <chr>         
    ##  1     1         35.7      5.8          83         0        0 Noon          
    ##  2     2         90.8      7.5           3         0        0 Dawn          
    ##  3     3         64.2      7.3          28         0        0 Dusk          
    ##  4     4         28       34.7         150         0        0 Sun_setting   
    ##  5     5        100        5.2         142         0        0 Dawn          
    ##  6     6         57.2     16.8         281         0        0 Night         
    ##  7     7         99.3      9.7          18         0        0 Dawn          
    ##  8     8         79.5     11.1          27         0        0 Dusk          
    ##  9     9         27.1     27           189         0        0 Sun_setting   
    ## 10    10         62.5     20.3         129         0        0 Dusk          
    ## # ... with 90 more rows, and 2 more variables: rel_humidity_hat <dbl>,
    ## #   residual <dbl>
…
